1 7721.04  86.0222  38.4629  6590.23  36.7055  147.981  56.4471  33.8661  250.036  89.9394  220.727  17.0809  112.612 
8 2567.89  84.9598  38.707  1811.88  41.5008  157.551  56.7998  34.2696  53.8216  98.4316  94.4112  20.0685  33.0943 
16 1630.28  86.613  39.0161  907.978  37.5213  131.099  57.5614  34.0915  37.8484  95.2012  92.4087  19.6584  47.1841 
64 949.194  87.2253  39.1825  371.695  39.3181  37.6902  57.9245  33.8272  23.102  90.169  88.2211  18.5262  18.4094 
