./data//Leaders: 638.7 KiB / 44.8 MiB = 0.014, 11 MiB/s, 0:04
./data//Leaders.decompressed.lzma: 638.7 KiB / 44.8 MiB = 0.014
Compression ratio : 0.0139239371437
Final Wtime(s)    : 4.04349088669
Decompression t(s)    : 0.0581810474396
