Text filename = /home/work/dvalenzu/data/large/Wiki.16GiB
Output filename = /home/work/dvalenzu/Repos/RLZPP_experiments/RESULTS_SCALABILITY/WIKIPEDIA/17179869184/EMLZscan_files/compressed.lz
RAM use = 4194304000 (4000.00MiB)
Max block size = 119837257 (114.29MiB)
sizeof(textoff_t) = 6
sizeof(blockoff_t) = 5

Process block [0..119837257):
  Read block: 1.38s
  Compute SA of block: 9.02s
  Parse block: 2.47s
  Current progress: 0.0%, elapsed = 13s, z = 2041854, total I/O vol = 0.01n
Process block [119836768..239674025):
  Read block: 1.28s
  Compute SA of block: 9.12s
  Compute LCP of block: 3.74s
  Compute MS-support: 2.34s
  Stream:   Stream: 100.0%, time = 16.58, I/O = 6.89MB/s
  Invert matching statistics: 0.84s
  Parse block: 2.58s
  Current progress: 0.7%, elapsed = 50s, z = 4294166, total I/O vol = 0.03n
Process block [239669898..359507155):
  Read block: 1.33s
  Compute SA of block: 8.99s
  Compute LCP of block: 3.72s
  Compute MS-support: 2.28s
  Stream:   Stream: 100.0%, time = 33.36, I/O = 6.85MB/s
  Invert matching statistics: 0.88s
  Parse block: 2.53s
  Current progress: 1.4%, elapsed = 103s, z = 6329334, total I/O vol = 0.05n
Process block [359507138..479344395):
  Read block: 1.23s
  Compute SA of block: 9.00s
  Compute LCP of block: 3.68s
  Compute MS-support: 2.26s
  Stream:   Stream: 100.0%, time = 49.22, I/O = 6.97MB/s
  Invert matching statistics: 0.83s
  Parse block: 2.41s
  Current progress: 2.1%, elapsed = 172s, z = 7955320, total I/O vol = 0.08n
Process block [479342902..599180159):
  Read block: 1.28s
  Compute SA of block: 9.11s
  Compute LCP of block: 3.72s
  Compute MS-support: 2.26s
  Stream:   Stream: 100.0%, time = 64.35, I/O = 7.10MB/s
  Invert matching statistics: 0.81s
  Parse block: 2.47s
  Current progress: 2.8%, elapsed = 257s, z = 9690156, total I/O vol = 0.11n
Process block [599180145..719017402):
  Read block: 1.22s
  Compute SA of block: 8.95s
  Compute LCP of block: 3.70s
  Compute MS-support: 2.26s
  Stream:   Stream: 100.0%, time = 79.32, I/O = 7.20MB/s
  Invert matching statistics: 0.76s
  Parse block: 2.48s
  Current progress: 3.5%, elapsed = 356s, z = 11445258, total I/O vol = 0.16n
Process block [719016336..838853593):
  Read block: 1.34s
  Compute SA of block: 8.85s
  Compute LCP of block: 3.74s
  Compute MS-support: 2.23s
  Stream:   Stream: 100.0%, time = 89.30, I/O = 7.68MB/s
  Invert matching statistics: 0.82s
  Parse block: 2.57s
  Current progress: 4.2%, elapsed = 465s, z = 13490658, total I/O vol = 0.21n
Process block [838850672..958687929):
  Read block: 1.22s
  Compute SA of block: 8.71s
  Compute LCP of block: 3.60s
  Compute MS-support: 2.21s
  Stream:   Stream: 100.0%, time = 109.58, I/O = 7.30MB/s
  Invert matching statistics: 0.76s
  Parse block: 2.33s
  Current progress: 4.9%, elapsed = 593s, z = 14874361, total I/O vol = 0.27n
Process block [958687924..1078525181):
  Read block: 1.30s
  Compute SA of block: 8.91s
  Compute LCP of block: 3.68s
  Compute MS-support: 2.24s
  Stream:   Stream: 100.0%, time = 121.04, I/O = 7.55MB/s
  Invert matching statistics: 0.74s
  Parse block: 2.43s
  Current progress: 5.6%, elapsed = 734s, z = 16525571, total I/O vol = 0.33n
Process block [1078525178..1198362435):
  Read block: 1.28s
  Compute SA of block: 8.71s
  Compute LCP of block: 3.67s
  Compute MS-support: 2.20s
  Stream:   Stream: 100.0%, time = 137.29, I/O = 7.49MB/s
  Invert matching statistics: 0.71s
  Parse block: 2.43s
  Current progress: 6.3%, elapsed = 891s, z = 18164158, total I/O vol = 0.40n
Process block [1198360961..1318198218):
  Read block: 1.33s
  Compute SA of block: 8.61s
  Compute LCP of block: 3.59s
  Compute MS-support: 2.20s
  Stream:   Stream: 100.0%, time = 152.79, I/O = 7.48MB/s
  Invert matching statistics: 0.69s
  Parse block: 2.32s
  Current progress: 7.0%, elapsed = 1063s, z = 19496769, total I/O vol = 0.48n
Process block [1318197722..1438034979):
  Read block: 1.24s
  Compute SA of block: 9.09s
  Compute LCP of block: 3.88s
  Compute MS-support: 2.25s
  Stream:   Stream: 100.0%, time = 145.30, I/O = 8.65MB/s
  Invert matching statistics: 0.79s
  Parse block: 2.72s
  Current progress: 7.7%, elapsed = 1228s, z = 21948490, total I/O vol = 0.57n
Process block [1438034924..1557872181):
  Read block: 1.25s
  Compute SA of block: 8.78s
  Compute LCP of block: 3.64s
  Compute MS-support: 2.21s
  Stream:   Stream: 100.0%, time = 184.80, I/O = 7.42MB/s
  Invert matching statistics: 0.72s
  Parse block: 2.40s
  Current progress: 8.4%, elapsed = 1432s, z = 23521794, total I/O vol = 0.66n
Process block [1557872136..1677709393):
  Read block: 1.29s
  Compute SA of block: 8.79s
  Compute LCP of block: 3.71s
  Compute MS-support: 2.24s
  Stream:   Stream: 100.0%, time = 191.68, I/O = 7.75MB/s
  Invert matching statistics: 0.71s
  Parse block: 2.48s
  Current progress: 9.1%, elapsed = 1643s, z = 25307297, total I/O vol = 0.76n
Process block [1677707868..1797545125):
  Read block: 1.24s
  Compute SA of block: 8.67s
  Compute LCP of block: 3.78s
  Compute MS-support: 2.22s
  Stream:   Stream: 100.0%, time = 196.13, I/O = 8.16MB/s
  Invert matching statistics: 0.75s
  Parse block: 2.62s
  Current progress: 9.8%, elapsed = 1859s, z = 27521900, total I/O vol = 0.87n
Process block [1797544427..1917381684):
  Read block: 1.24s
  Compute SA of block: 8.78s
  Compute LCP of block: 3.68s
  Compute MS-support: 2.21s
  Stream:   Stream: 100.0%, time = 217.82, I/O = 7.87MB/s
  Invert matching statistics: 0.70s
  Parse block: 2.43s
  Current progress: 10.5%, elapsed = 2096s, z = 29160177, total I/O vol = 0.98n
Process block [1917379461..2037216718):
  Read block: 1.29s
  Compute SA of block: 8.84s
  Compute LCP of block: 3.70s
  Compute MS-support: 2.24s
  Stream:   Stream: 100.0%, time = 239.36, I/O = 7.64MB/s
  Invert matching statistics: 0.69s
  Parse block: 2.42s
  Current progress: 11.2%, elapsed = 2355s, z = 30746095, total I/O vol = 1.11n
Process block [2037216716..2157053973):
  Read block: 1.33s
  Compute SA of block: 8.72s
  Compute LCP of block: 3.66s
  Compute MS-support: 2.22s
  Stream:   Stream: 100.0%, time = 239.65, I/O = 8.11MB/s
  Invert matching statistics: 0.70s
  Parse block: 2.41s
  Current progress: 11.9%, elapsed = 2614s, z = 32300795, total I/O vol = 1.23n
Process block [2157053558..2276890815):
  Read block: 1.24s
  Compute SA of block: 8.78s
  Compute LCP of block: 3.50s
  Compute MS-support: 2.17s
  Stream:   Stream: 100.0%, time = 242.65, I/O = 8.48MB/s
  Invert matching statistics: 0.71s
  Parse block: 2.21s
  Current progress: 12.6%, elapsed = 2876s, z = 33380236, total I/O vol = 1.37n
Process block [2276888585..2396725842):
  Read block: 1.31s
  Compute SA of block: 8.92s
  Compute LCP of block: 3.63s
  Compute MS-support: 2.24s
  Stream:   Stream: 100.0%, time = 274.65, I/O = 7.91MB/s
  Invert matching statistics: 0.66s
  Parse block: 2.32s
  Current progress: 13.3%, elapsed = 3170s, z = 34674627, total I/O vol = 1.51n
Process block [2396724327..2516561584):
  Read block: 1.24s
  Compute SA of block: 8.66s
  Compute LCP of block: 3.65s
  Compute MS-support: 2.22s
  Stream:   Stream: 100.0%, time = 278.58, I/O = 8.20MB/s
  Invert matching statistics: 0.70s
  Parse block: 2.39s
  Current progress: 14.0%, elapsed = 3468s, z = 36166375, total I/O vol = 1.66n
Process block [2516556929..2636394186):
  Read block: 1.31s
  Compute SA of block: 8.75s
  Compute LCP of block: 3.60s
  Compute MS-support: 2.23s
  Stream:   Stream: 100.0%, time = 300.92, I/O = 7.98MB/s
  Invert matching statistics: 0.69s
  Parse block: 2.30s
  Current progress: 14.6%, elapsed = 3788s, z = 37423146, total I/O vol = 1.81n
Process block [2636392941..2756230198):
  Read block: 1.30s
  Compute SA of block: 9.10s
  Compute LCP of block: 3.86s
  Compute MS-support: 2.24s
  Stream:   Stream: 100.0%, time = 280.14, I/O = 8.97MB/s
  Invert matching statistics: 0.73s
  Parse block: 2.66s
  Current progress: 15.3%, elapsed = 4088s, z = 39621698, total I/O vol = 1.98n
Process block [2756230189..2876067446):
  Read block: 1.24s
  Compute SA of block: 8.85s
  Compute LCP of block: 3.69s
  Compute MS-support: 2.21s
  Stream:   Stream: 100.0%, time = 318.14, I/O = 8.26MB/s
  Invert matching statistics: 0.69s
  Parse block: 2.40s
  Current progress: 16.0%, elapsed = 4426s, z = 41115887, total I/O vol = 2.15n
Process block [2876067033..2995904290):
  Read block: 1.31s
  Compute SA of block: 8.70s
  Compute LCP of block: 3.50s
  Compute MS-support: 2.20s
  Stream:   Stream: 100.0%, time = 325.12, I/O = 8.44MB/s
  Invert matching statistics: 0.72s
  Parse block: 2.17s
  Current progress: 16.7%, elapsed = 4770s, z = 42018361, total I/O vol = 2.32n
Process block [2995903839..3115741096):
  Read block: 1.34s
  Compute SA of block: 8.66s
  Compute LCP of block: 3.61s
  Compute MS-support: 2.21s
  Stream:   Stream: 100.0%, time = 338.57, I/O = 8.44MB/s
  Invert matching statistics: 0.69s
  Parse block: 2.35s
  Current progress: 17.4%, elapsed = 5127s, z = 43469130, total I/O vol = 2.51n
Process block [3115740543..3235577800):
  Read block: 1.26s
  Compute SA of block: 9.05s
  Compute LCP of block: 3.76s
  Compute MS-support: 2.26s
  Stream:   Stream: 100.0%, time = 369.25, I/O = 8.05MB/s
  Invert matching statistics: 0.68s
  Parse block: 2.45s
  Current progress: 18.1%, elapsed = 5516s, z = 45047990, total I/O vol = 2.70n
Process block [3235576870..3355414127):
  Read block: 1.23s
  Compute SA of block: 8.80s
  Compute LCP of block: 3.76s
  Compute MS-support: 2.22s
  Stream:   Stream: 100.0%, time = 373.35, I/O = 8.26MB/s
  Invert matching statistics: 0.68s
  Parse block: 2.52s
  Current progress: 18.8%, elapsed = 5909s, z = 46915854, total I/O vol = 2.90n
Process block [3355414125..3475251382):
  Read block: 1.25s
  Compute SA of block: 8.93s
  Compute LCP of block: 3.62s
  Compute MS-support: 2.22s
  Stream:   Stream: 100.0%, time = 366.04, I/O = 8.74MB/s
  Invert matching statistics: 0.69s
  Parse block: 2.32s
  Current progress: 19.5%, elapsed = 6295s, z = 48196965, total I/O vol = 3.10n
Process block [3475249674..3595086931):
  Read block: 1.36s
  Compute SA of block: 8.99s
  Compute LCP of block: 3.69s
  Compute MS-support: 2.26s
  Stream:   Stream: 100.0%, time = 414.48, I/O = 8.00MB/s
  Invert matching statistics: 0.64s
  Parse block: 2.34s
  Current progress: 20.2%, elapsed = 6729s, z = 49515640, total I/O vol = 3.31n
Process block [3595086564..3714923821):
  Read block: 1.30s
  Compute SA of block: 9.10s
  Compute LCP of block: 3.77s
  Compute MS-support: 2.27s
  Stream:   Stream: 100.0%, time = 423.32, I/O = 8.10MB/s
  Invert matching statistics: 0.67s
  Parse block: 2.42s
  Current progress: 20.9%, elapsed = 7172s, z = 51021639, total I/O vol = 3.53n
Process block [3714923783..3834761040):
  Read block: 1.24s
  Compute SA of block: 9.16s
  Compute LCP of block: 3.74s
  Compute MS-support: 2.26s
  Stream:   Stream: 100.0%, time = 439.28, I/O = 8.07MB/s
  Invert matching statistics: 0.70s
  Parse block: 2.38s
  Current progress: 21.6%, elapsed = 7631s, z = 52400910, total I/O vol = 3.76n
Process block [3834760987..3954598244):
  Read block: 1.28s
  Compute SA of block: 9.15s
  Compute LCP of block: 3.74s
  Compute MS-support: 2.27s
  Stream:   Stream: 100.0%, time = 461.26, I/O = 7.93MB/s
  Invert matching statistics: 0.65s
  Parse block: 2.38s
  Current progress: 22.3%, elapsed = 8112s, z = 53791963, total I/O vol = 3.99n
Process block [3954597787..4074435044):
  Read block: 1.32s
  Compute SA of block: 8.91s
  Compute LCP of block: 3.74s
  Compute MS-support: 2.23s
  Stream:   Stream: 100.0%, time = 463.91, I/O = 8.13MB/s
  Invert matching statistics: 0.67s
  Parse block: 2.43s
  Current progress: 23.0%, elapsed = 8595s, z = 55364703, total I/O vol = 4.23n
Process block [4074433541..4194270798):
  Read block: 1.23s
  Compute SA of block: 8.81s
  Compute LCP of block: 3.61s
  Compute MS-support: 2.23s
  Stream:   Stream: 100.0%, time = 479.39, I/O = 8.11MB/s
  Invert matching statistics: 0.65s
  Parse block: 2.29s
  Current progress: 23.7%, elapsed = 9094s, z = 56567950, total I/O vol = 4.48n
Process block [4194270675..4314107932):
  Read block: 1.24s
  Compute SA of block: 9.00s
  Compute LCP of block: 3.72s
  Compute MS-support: 2.26s
  Stream:   Stream: 100.0%, time = 490.36, I/O = 8.16MB/s
  Invert matching statistics: 0.66s
  Parse block: 2.40s
  Current progress: 24.4%, elapsed = 9604s, z = 58077013, total I/O vol = 4.73n
Process block [4314107178..4433944435):
  Read block: 1.30s
  Compute SA of block: 8.93s
  Compute LCP of block: 3.69s
  Compute MS-support: 2.26s
  Stream:   Stream: 100.0%, time = 508.84, I/O = 8.09MB/s
  Invert matching statistics: 0.66s
  Parse block: 2.34s
  Current progress: 25.1%, elapsed = 10132s, z = 59377054, total I/O vol = 4.99n
Process block [4433944357..4553781614):
  Read block: 1.30s
  Compute SA of block: 8.60s
  Compute LCP of block: 3.58s
  Compute MS-support: 2.20s
  Stream:   Stream: 100.0%, time = 516.78, I/O = 8.18MB/s
  Invert matching statistics: 0.64s
  Parse block: 2.26s
  Current progress: 25.8%, elapsed = 10668s, z = 60529031, total I/O vol = 5.26n
Process block [4553780732..4673617989):
  Read block: 1.31s
  Compute SA of block: 9.14s
  Compute LCP of block: 3.74s
  Compute MS-support: 2.27s
  Stream:   Stream: 100.0%, time = 535.06, I/O = 8.12MB/s
  Invert matching statistics: 0.65s
  Parse block: 2.38s
  Current progress: 26.5%, elapsed = 11223s, z = 61937138, total I/O vol = 5.54n
Process block [4673615792..4793453049):
  Read block: 1.24s
  Compute SA of block: 8.66s
  Compute LCP of block: 3.67s
  Compute MS-support: 2.21s
  Stream:   Stream: 100.0%, time = 542.43, I/O = 8.22MB/s
  Invert matching statistics: 0.65s
  Parse block: 2.35s
  Current progress: 27.2%, elapsed = 11784s, z = 63284656, total I/O vol = 5.82n
Process block [4793452910..4913290167):
  Read block: 1.30s
  Compute SA of block: 8.77s
  Compute LCP of block: 3.66s
  Compute MS-support: 2.22s
  Stream:   Stream: 100.0%, time = 560.40, I/O = 8.16MB/s
  Invert matching statistics: 0.63s
  Parse block: 2.33s
  Current progress: 27.9%, elapsed = 12364s, z = 64605467, total I/O vol = 6.11n
Process block [4913290115..5033127372):
  Read block: 1.27s
  Compute SA of block: 9.04s
  Compute LCP of block: 3.82s
  Compute MS-support: 2.24s
  Stream:   Stream: 100.0%, time = 512.58, I/O = 9.14MB/s
  Invert matching statistics: 0.67s
  Parse block: 2.52s
  Current progress: 28.6%, elapsed = 12896s, z = 66349514, total I/O vol = 6.40n
Process block [5033127048..5152964305):
  Read block: 1.26s
  Compute SA of block: 8.58s
  Compute LCP of block: 3.45s
  Compute MS-support: 2.18s
  Stream:   Stream: 100.0%, time = 570.96, I/O = 8.41MB/s
  Invert matching statistics: 0.65s
  Parse block: 2.11s
  Current progress: 29.3%, elapsed = 13486s, z = 67068674, total I/O vol = 6.71n
Process block [5152964270..5272801527):
  Read block: 1.31s
  Compute SA of block: 8.76s
  Compute LCP of block: 3.69s
  Compute MS-support: 2.22s
  Stream:   Stream: 100.0%, time = 568.68, I/O = 8.64MB/s
  Invert matching statistics: 0.65s
  Parse block: 2.40s
  Current progress: 30.0%, elapsed = 14074s, z = 68590870, total I/O vol = 7.02n
Process block [5272801410..5392638667):
  Read block: 1.24s
  Compute SA of block: 8.56s
  Compute LCP of block: 3.61s
  Compute MS-support: 2.19s
  Stream:   Stream: 100.0%, time = 602.03, I/O = 8.35MB/s
  Invert matching statistics: 0.66s
  Parse block: 2.30s
  Current progress: 30.7%, elapsed = 14695s, z = 69841195, total I/O vol = 7.33n
Process block [5392638641..5512475898):
  Read block: 1.37s
  Compute SA of block: 8.80s
  Compute LCP of block: 3.71s
  Compute MS-support: 2.22s
  Stream:   Stream: 100.0%, time = 618.44, I/O = 8.32MB/s
  Invert matching statistics: 0.63s
  Parse block: 2.38s
  Current progress: 31.4%, elapsed = 15333s, z = 71269394, total I/O vol = 7.66n
Process block [5512475875..5632313132):
  Read block: 1.31s
  Compute SA of block: 8.62s
  Compute LCP of block: 3.57s
  Compute MS-support: 2.20s
  Stream:   Stream: 100.0%, time = 643.31, I/O = 8.17MB/s
  Invert matching statistics: 0.62s
  Parse block: 2.24s
  Current progress: 32.1%, elapsed = 15995s, z = 72344176, total I/O vol = 7.99n
Process block [5632313051..5752150308):
  Read block: 1.31s
  Compute SA of block: 8.67s
  Compute LCP of block: 3.68s
  Compute MS-support: 2.21s
  Stream:   Stream: 100.0%, time = 647.12, I/O = 8.30MB/s
  Invert matching statistics: 0.64s
  Parse block: 2.40s
  Current progress: 32.8%, elapsed = 16661s, z = 73877857, total I/O vol = 8.33n
Process block [5752149519..5871986776):
  Read block: 1.28s
  Compute SA of block: 8.83s
  Compute LCP of block: 3.88s
  Compute MS-support: 2.23s
  Stream:   Stream: 100.0%, time = 593.96, I/O = 9.24MB/s
  Invert matching statistics: 0.75s
  Parse block: 2.72s
  Current progress: 33.5%, elapsed = 17275s, z = 76171431, total I/O vol = 8.67n
Process block [5871986566..5991823823):
  Read block: 1.34s
  Compute SA of block: 9.12s
  Compute LCP of block: 3.81s
  Compute MS-support: 2.26s
  Stream:   Stream: 100.0%, time = 673.60, I/O = 8.31MB/s
  Invert matching statistics: 0.65s
  Parse block: 2.49s
  Current progress: 34.2%, elapsed = 17969s, z = 77859825, total I/O vol = 9.03n
Process block [5991823461..6111660718):
  Read block: 1.24s
  Compute SA of block: 9.16s
  Compute LCP of block: 3.77s
  Compute MS-support: 2.27s
  Stream:   Stream: 100.0%, time = 695.03, I/O = 8.22MB/s
  Invert matching statistics: 0.66s
  Parse block: 2.41s
  Current progress: 34.9%, elapsed = 18684s, z = 79320614, total I/O vol = 9.39n
Process block [6111660566..6231497823):
  Read block: 1.31s
  Compute SA of block: 9.21s
  Compute LCP of block: 3.88s
  Compute MS-support: 2.27s
  Stream:   Stream: 100.0%, time = 706.01, I/O = 8.26MB/s
  Invert matching statistics: 0.66s
  Parse block: 2.56s
  Current progress: 35.6%, elapsed = 19410s, z = 81207687, total I/O vol = 9.75n
Process block [6231496586..6351333843):
  Read block: 1.26s
  Compute SA of block: 9.10s
  Compute LCP of block: 3.79s
  Compute MS-support: 2.26s
  Stream:   Stream: 100.0%, time = 719.12, I/O = 8.26MB/s
  Invert matching statistics: 0.71s
  Parse block: 2.45s
  Current progress: 36.3%, elapsed = 20149s, z = 82790174, total I/O vol = 10.13n
Process block [6351333740..6471170997):
  Read block: 1.23s
  Compute SA of block: 9.15s
  Compute LCP of block: 3.75s
  Compute MS-support: 2.27s
  Stream:   Stream: 100.0%, time = 740.34, I/O = 8.18MB/s
  Invert matching statistics: 0.63s
  Parse block: 2.38s
  Current progress: 37.0%, elapsed = 20909s, z = 84202580, total I/O vol = 10.51n
Process block [6471169226..6591006483):
  Read block: 1.35s
  Compute SA of block: 9.14s
  Compute LCP of block: 3.68s
  Compute MS-support: 2.27s
  Stream:   Stream: 100.0%, time = 750.47, I/O = 8.22MB/s
  Invert matching statistics: 0.67s
  Parse block: 2.29s
  Current progress: 37.7%, elapsed = 21679s, z = 85374414, total I/O vol = 10.89n
Process block [6591006303..6710843560):
  Read block: 1.35s
  Compute SA of block: 8.99s
  Compute LCP of block: 3.62s
  Compute MS-support: 2.26s
  Stream:   Stream: 100.0%, time = 752.53, I/O = 8.35MB/s
  Invert matching statistics: 0.67s
  Parse block: 2.26s
  Current progress: 38.4%, elapsed = 22451s, z = 86487038, total I/O vol = 11.29n
Process block [6710842200..6830679457):
  Read block: 1.31s
  Compute SA of block: 9.12s
  Compute LCP of block: 3.81s
  Compute MS-support: 2.27s
  Stream:   Stream: 100.0%, time = 766.76, I/O = 8.35MB/s
  Invert matching statistics: 0.64s
  Parse block: 2.50s
  Current progress: 39.1%, elapsed = 23238s, z = 88214413, total I/O vol = 11.69n
Process block [6830677581..6950514838):
  Read block: 1.25s
  Compute SA of block: 8.91s
  Compute LCP of block: 3.71s
  Compute MS-support: 2.23s
  Stream:   Stream: 100.0%, time = 784.11, I/O = 8.31MB/s
  Invert matching statistics: 0.64s
  Parse block: 2.37s
  Current progress: 39.8%, elapsed = 24041s, z = 89593940, total I/O vol = 12.10n
Process block [6950514491..7070351748):
  Read block: 1.36s
  Compute SA of block: 8.95s
  Compute LCP of block: 3.66s
  Compute MS-support: 2.25s
  Stream:   Stream: 100.0%, time = 797.61, I/O = 8.31MB/s
  Invert matching statistics: 0.62s
  Parse block: 2.30s
  Current progress: 40.5%, elapsed = 24858s, z = 90791435, total I/O vol = 12.51n
Process block [7070350195..7190187452):
  Read block: 1.32s
  Compute SA of block: 9.20s
  Compute LCP of block: 3.74s
  Compute MS-support: 2.29s
  Stream:   Stream: 100.0%, time = 816.45, I/O = 8.26MB/s
  Invert matching statistics: 0.64s
  Parse block: 2.36s
  Current progress: 41.2%, elapsed = 25695s, z = 92106743, total I/O vol = 12.94n
Process block [7190187288..7310024545):
  Read block: 1.31s
  Compute SA of block: 8.76s
  Compute LCP of block: 3.60s
  Compute MS-support: 2.25s
  Stream:   Stream: 100.0%, time = 823.79, I/O = 8.32MB/s
  Invert matching statistics: 0.64s
  Parse block: 2.25s
  Current progress: 41.9%, elapsed = 26538s, z = 93192198, total I/O vol = 13.37n
Process block [7310021560..7429858817):
  Read block: 1.36s
  Compute SA of block: 9.20s
  Compute LCP of block: 3.71s
  Compute MS-support: 2.27s
  Stream:   Stream: 100.0%, time = 837.74, I/O = 8.32MB/s
  Invert matching statistics: 0.64s
  Parse block: 2.33s
  Current progress: 42.5%, elapsed = 27395s, z = 94382132, total I/O vol = 13.80n
Process block [7429858794..7549696051):
  Read block: 1.34s
  Compute SA of block: 9.07s
  Compute LCP of block: 3.75s
  Compute MS-support: 2.27s
  Stream:   Stream: 100.0%, time = 859.64, I/O = 8.24MB/s
  Invert matching statistics: 0.62s
  Parse block: 2.38s
  Current progress: 43.2%, elapsed = 28275s, z = 95781704, total I/O vol = 14.25n
Process block [7549693483..7669530740):
  Read block: 1.34s
  Compute SA of block: 9.08s
  Compute LCP of block: 3.72s
  Compute MS-support: 2.27s
  Stream:   Stream: 100.0%, time = 875.19, I/O = 8.23MB/s
  Invert matching statistics: 0.63s
  Parse block: 2.33s
  Current progress: 43.9%, elapsed = 29169s, z = 97053537, total I/O vol = 14.70n
Process block [7669518387..7789355644):
  Read block: 1.34s
  Compute SA of block: 9.03s
  Compute LCP of block: 3.70s
  Compute MS-support: 2.26s
  Stream:   Stream: 100.0%, time = 889.37, I/O = 8.22MB/s
  Invert matching statistics: 0.62s
  Parse block: 2.31s
  Current progress: 44.6%, elapsed = 30078s, z = 98252384, total I/O vol = 15.15n
Process block [7789355637..7909192894):
  Read block: 1.37s
  Compute SA of block: 9.14s
  Compute LCP of block: 3.73s
  Compute MS-support: 2.28s
  Stream:   Stream: 100.0%, time = 904.45, I/O = 8.21MB/s
  Invert matching statistics: 0.67s
  Parse block: 2.34s
  Current progress: 45.3%, elapsed = 31003s, z = 99522560, total I/O vol = 15.62n
Process block [7909192221..8029029478):
  Read block: 1.32s
  Compute SA of block: 9.06s
  Compute LCP of block: 3.74s
  Compute MS-support: 2.26s
  Stream:   Stream: 100.0%, time = 911.36, I/O = 8.28MB/s
  Invert matching statistics: 0.64s
  Parse block: 2.42s
  Current progress: 46.0%, elapsed = 31934s, z = 100992717, total I/O vol = 16.09n
Process block [8029028441..8148865698):
  Read block: 1.31s
  Compute SA of block: 9.07s
  Compute LCP of block: 3.68s
  Compute MS-support: 2.27s
  Stream:   Stream: 100.0%, time = 933.08, I/O = 8.21MB/s
  Invert matching statistics: 0.63s
  Parse block: 2.28s
  Current progress: 46.7%, elapsed = 32886s, z = 102105486, total I/O vol = 16.57n
Process block [8148865364..8268702621):
  Read block: 1.39s
  Compute SA of block: 8.74s
  Compute LCP of block: 3.64s
  Compute MS-support: 2.23s
  Stream:   Stream: 100.0%, time = 943.46, I/O = 8.24MB/s
  Invert matching statistics: 0.64s
  Parse block: 2.28s
  Current progress: 47.4%, elapsed = 33849s, z = 103260390, total I/O vol = 17.05n
Process block [8268701840..8388539097):
  Read block: 1.32s
  Compute SA of block: 8.98s
  Compute LCP of block: 3.65s
  Compute MS-support: 2.25s
  Stream:   Stream: 100.0%, time = 956.00, I/O = 8.25MB/s
  Invert matching statistics: 0.62s
  Parse block: 2.26s
  Current progress: 48.1%, elapsed = 34824s, z = 104338314, total I/O vol = 17.54n
Process block [8388538205..8508375462):
  Read block: 1.38s
  Compute SA of block: 8.76s
  Compute LCP of block: 3.67s
  Compute MS-support: 2.22s
  Stream:   Stream: 100.0%, time = 944.61, I/O = 8.47MB/s
  Invert matching statistics: 0.65s
  Parse block: 2.30s
  Current progress: 48.8%, elapsed = 35788s, z = 105541498, total I/O vol = 18.04n
Process block [8508375337..8628212594):
  Read block: 1.34s
  Compute SA of block: 8.72s
  Compute LCP of block: 3.63s
  Compute MS-support: 2.21s
  Stream:   Stream: 100.0%, time = 967.74, I/O = 8.38MB/s
  Invert matching statistics: 0.62s
  Parse block: 2.27s
  Current progress: 49.5%, elapsed = 36775s, z = 106668978, total I/O vol = 18.55n
Process block [8628211878..8748049135):
  Read block: 1.31s
  Compute SA of block: 8.73s
  Compute LCP of block: 3.57s
  Compute MS-support: 2.20s
  Stream:   Stream: 100.0%, time = 995.09, I/O = 8.27MB/s
  Invert matching statistics: 0.61s
  Parse block: 2.21s
  Current progress: 50.2%, elapsed = 37789s, z = 107645665, total I/O vol = 19.06n
Process block [8748049120..8867886377):
  Read block: 1.34s
  Compute SA of block: 9.11s
  Compute LCP of block: 3.71s
  Compute MS-support: 2.27s
  Stream:   Stream: 100.0%, time = 1008.87, I/O = 8.27MB/s
  Invert matching statistics: 0.61s
  Parse block: 2.32s
  Current progress: 50.9%, elapsed = 38818s, z = 108853206, total I/O vol = 19.58n
Process block [8867886303..8987723560):
  Read block: 1.37s
  Compute SA of block: 9.10s
  Compute LCP of block: 3.77s
  Compute MS-support: 2.26s
  Stream:   Stream: 100.0%, time = 1016.88, I/O = 8.32MB/s
  Invert matching statistics: 0.67s
  Parse block: 2.40s
  Current progress: 51.6%, elapsed = 39855s, z = 110305419, total I/O vol = 20.11n
Process block [8987723556..9107560813):
  Read block: 1.31s
  Compute SA of block: 8.74s
  Compute LCP of block: 3.63s
  Compute MS-support: 2.20s
  Stream:   Stream: 100.0%, time = 1011.54, I/O = 8.47MB/s
  Invert matching statistics: 0.63s
  Parse block: 2.31s
  Current progress: 52.3%, elapsed = 40885s, z = 111564750, total I/O vol = 20.64n
Process block [9107558542..9227395799):
  Read block: 1.31s
  Compute SA of block: 9.02s
  Compute LCP of block: 3.67s
  Compute MS-support: 2.25s
  Stream:   Stream: 100.0%, time = 1050.63, I/O = 8.27MB/s
  Invert matching statistics: 0.60s
  Parse block: 2.28s
  Current progress: 53.0%, elapsed = 41955s, z = 112699744, total I/O vol = 21.19n
Process block [9227395614..9347232871):
  Read block: 1.41s
  Compute SA of block: 9.03s
  Compute LCP of block: 3.71s
  Compute MS-support: 2.27s
  Stream:   Stream: 100.0%, time = 1064.37, I/O = 8.27MB/s
  Invert matching statistics: 0.62s
  Parse block: 2.32s
  Current progress: 53.7%, elapsed = 43039s, z = 113953537, total I/O vol = 21.73n
Process block [9347231059..9467068316):
  Read block: 1.26s
  Compute SA of block: 9.14s
  Compute LCP of block: 3.71s
  Compute MS-support: 2.27s
  Stream:   Stream: 100.0%, time = 1074.61, I/O = 8.30MB/s
  Invert matching statistics: 0.65s
  Parse block: 2.32s
  Current progress: 54.4%, elapsed = 44134s, z = 115168416, total I/O vol = 22.29n
Process block [9467068216..9586905473):
  Read block: 1.31s
  Compute SA of block: 9.07s
  Compute LCP of block: 3.74s
  Compute MS-support: 2.27s
  Stream:   Stream: 100.0%, time = 1087.20, I/O = 8.30MB/s
  Invert matching statistics: 0.68s
  Parse block: 2.37s
  Current progress: 55.1%, elapsed = 45241s, z = 116523974, total I/O vol = 22.85n
Process block [9586901880..9706739137):
  Read block: 1.34s
  Compute SA of block: 9.08s
  Compute LCP of block: 3.74s
  Compute MS-support: 2.27s
  Stream:   Stream: 100.0%, time = 1104.81, I/O = 8.28MB/s
  Invert matching statistics: 0.64s
  Parse block: 2.37s
  Current progress: 55.8%, elapsed = 46365s, z = 117859194, total I/O vol = 23.42n
Process block [9706739098..9826576355):
  Read block: 1.36s
  Compute SA of block: 9.05s
  Compute LCP of block: 3.73s
  Compute MS-support: 2.26s
  Stream:   Stream: 100.0%, time = 1123.01, I/O = 8.24MB/s
  Invert matching statistics: 0.66s
  Parse block: 2.32s
  Current progress: 56.5%, elapsed = 47508s, z = 119060321, total I/O vol = 24.00n
Process block [9826574746..9946412003):
  Read block: 1.31s
  Compute SA of block: 8.75s
  Compute LCP of block: 3.65s
  Compute MS-support: 2.22s
  Stream:   Stream: 100.0%, time = 1084.66, I/O = 8.64MB/s
  Invert matching statistics: 0.63s
  Parse block: 2.30s
  Current progress: 57.2%, elapsed = 48612s, z = 120259001, total I/O vol = 24.58n
Process block [9946409490..10066246747):
  Read block: 1.31s
  Compute SA of block: 8.74s
  Compute LCP of block: 3.64s
  Compute MS-support: 2.22s
  Stream:   Stream: 100.0%, time = 1121.30, I/O = 8.46MB/s
  Invert matching statistics: 0.63s
  Parse block: 2.30s
  Current progress: 57.9%, elapsed = 49752s, z = 121470000, total I/O vol = 25.17n
Process block [10066246515..10186083772):
  Read block: 1.37s
  Compute SA of block: 8.68s
  Compute LCP of block: 3.55s
  Compute MS-support: 2.21s
  Stream:   Stream: 100.0%, time = 1146.83, I/O = 8.37MB/s
  Invert matching statistics: 0.62s
  Parse block: 2.20s
  Current progress: 58.6%, elapsed = 50918s, z = 122417218, total I/O vol = 25.77n
Process block [10186083095..10305920352):
  Read block: 1.33s
  Compute SA of block: 9.07s
  Compute LCP of block: 3.84s
  Compute MS-support: 2.25s
  Stream:   Stream: 100.0%, time = 1106.56, I/O = 8.78MB/s
  Invert matching statistics: 0.71s
  Parse block: 2.58s
  Current progress: 59.3%, elapsed = 52044s, z = 124335594, total I/O vol = 26.37n
Process block [10305920325..10425757582):
  Read block: 1.34s
  Compute SA of block: 8.65s
  Compute LCP of block: 3.57s
  Compute MS-support: 2.20s
  Stream:   Stream: 100.0%, time = 1134.91, I/O = 8.66MB/s
  Invert matching statistics: 0.66s
  Parse block: 2.24s
  Current progress: 60.0%, elapsed = 53198s, z = 125416053, total I/O vol = 26.98n
Process block [10425756013..10545593270):
  Read block: 1.37s
  Compute SA of block: 8.87s
  Compute LCP of block: 3.65s
  Compute MS-support: 2.24s
  Stream:   Stream: 100.0%, time = 1181.92, I/O = 8.41MB/s
  Invert matching statistics: 0.61s
  Parse block: 2.26s
  Current progress: 60.7%, elapsed = 54400s, z = 126484630, total I/O vol = 27.60n
Process block [10545591950..10665429207):
  Read block: 1.24s
  Compute SA of block: 9.10s
  Compute LCP of block: 3.73s
  Compute MS-support: 2.27s
  Stream:   Stream: 100.0%, time = 1204.26, I/O = 8.35MB/s
  Invert matching statistics: 0.63s
  Parse block: 2.33s
  Current progress: 61.4%, elapsed = 55623s, z = 127736800, total I/O vol = 28.23n
Process block [10665429051..10785266308):
  Read block: 1.32s
  Compute SA of block: 9.04s
  Compute LCP of block: 3.70s
  Compute MS-support: 2.27s
  Stream:   Stream: 100.0%, time = 1223.55, I/O = 8.31MB/s
  Invert matching statistics: 0.61s
  Parse block: 2.30s
  Current progress: 62.1%, elapsed = 56867s, z = 128901630, total I/O vol = 28.86n
Process block [10785266027..10905103284):
  Read block: 1.36s
  Compute SA of block: 9.02s
  Compute LCP of block: 3.67s
  Compute MS-support: 2.26s
  Stream:   Stream: 100.0%, time = 1231.90, I/O = 8.35MB/s
  Invert matching statistics: 0.67s
  Parse block: 2.26s
  Current progress: 62.8%, elapsed = 58118s, z = 129938129, total I/O vol = 29.50n
Process block [10905102142..11024939399):
  Read block: 1.36s
  Compute SA of block: 8.91s
  Compute LCP of block: 3.76s
  Compute MS-support: 2.24s
  Stream:   Stream: 100.0%, time = 1227.69, I/O = 8.47MB/s
  Invert matching statistics: 0.67s
  Parse block: 2.40s
  Current progress: 63.5%, elapsed = 59365s, z = 131362248, total I/O vol = 30.15n
Process block [11024939365..11144776622):
  Read block: 1.24s
  Compute SA of block: 8.50s
  Compute LCP of block: 3.54s
  Compute MS-support: 2.18s
  Stream:   Stream: 100.0%, time = 1218.12, I/O = 8.63MB/s
  Invert matching statistics: 0.66s
  Parse block: 2.22s
  Current progress: 64.2%, elapsed = 60602s, z = 132365029, total I/O vol = 30.80n
Process block [11144776323..11264613580):
  Read block: 1.36s
  Compute SA of block: 8.83s
  Compute LCP of block: 3.72s
  Compute MS-support: 2.22s
  Stream:   Stream: 100.0%, time = 1233.93, I/O = 8.61MB/s
  Invert matching statistics: 0.62s
  Parse block: 2.38s
  Current progress: 64.9%, elapsed = 61856s, z = 133802508, total I/O vol = 31.46n
Process block [11264612271..11384449528):
  Read block: 1.34s
  Compute SA of block: 8.71s
  Compute LCP of block: 3.59s
  Compute MS-support: 2.21s
  Stream:   Stream: 100.0%, time = 1284.32, I/O = 8.36MB/s
  Invert matching statistics: 0.61s
  Parse block: 2.22s
  Current progress: 65.6%, elapsed = 63159s, z = 134782558, total I/O vol = 32.13n
Process block [11384449401..11504286658):
  Read block: 1.24s
  Compute SA of block: 9.20s
  Compute LCP of block: 3.73s
  Compute MS-support: 2.27s
  Stream:   Stream: 100.0%, time = 1301.58, I/O = 8.34MB/s
  Invert matching statistics: 0.65s
  Parse block: 2.32s
  Current progress: 66.3%, elapsed = 64480s, z = 135961362, total I/O vol = 32.80n
Process block [11504286240..11624123497):
  Read block: 1.33s
  Compute SA of block: 8.71s
  Compute LCP of block: 3.64s
  Compute MS-support: 2.21s
  Stream:   Stream: 100.0%, time = 1302.58, I/O = 8.42MB/s
  Invert matching statistics: 0.63s
  Parse block: 2.27s
  Current progress: 67.0%, elapsed = 65802s, z = 137098386, total I/O vol = 33.48n
Process block [11624123281..11743960538):
  Read block: 1.38s
  Compute SA of block: 9.00s
  Compute LCP of block: 3.66s
  Compute MS-support: 2.24s
  Stream:   Stream: 100.0%, time = 1348.66, I/O = 8.22MB/s
  Invert matching statistics: 0.61s
  Parse block: 2.28s
  Current progress: 67.7%, elapsed = 67170s, z = 138212647, total I/O vol = 34.17n
Process block [11743953171..11863790428):
  Read block: 1.33s
  Compute SA of block: 8.93s
  Compute LCP of block: 3.58s
  Compute MS-support: 2.26s
  Stream:   Stream: 100.0%, time = 1373.82, I/O = 8.15MB/s
  Invert matching statistics: 0.61s
  Parse block: 2.20s
  Current progress: 68.4%, elapsed = 68563s, z = 139160882, total I/O vol = 34.87n
Process block [11863790238..11983627495):
  Read block: 1.32s
  Compute SA of block: 8.98s
  Compute LCP of block: 3.73s
  Compute MS-support: 2.24s
  Stream:   Stream: 100.0%, time = 1390.93, I/O = 8.13MB/s
  Invert matching statistics: 0.62s
  Parse block: 2.39s
  Current progress: 69.1%, elapsed = 69974s, z = 140598468, total I/O vol = 35.57n
Process block [11983627487..12103464744):
  Read block: 1.39s
  Compute SA of block: 8.71s
  Compute LCP of block: 3.65s
  Compute MS-support: 2.21s
  Stream:   Stream: 100.0%, time = 1446.18, I/O = 7.90MB/s
  Invert matching statistics: 0.62s
  Parse block: 2.34s
  Current progress: 69.8%, elapsed = 71439s, z = 141942839, total I/O vol = 36.28n
Process block [12103464740..12223301997):
  Read block: 1.34s
  Compute SA of block: 9.12s
  Compute LCP of block: 3.72s
  Compute MS-support: 2.27s
  Stream:   Stream: 100.0%, time = 1515.79, I/O = 7.62MB/s
  Invert matching statistics: 0.60s
  Parse block: 2.33s
  Current progress: 70.5%, elapsed = 72975s, z = 143192917, total I/O vol = 36.99n
Process block [12223300680..12343137937):
  Read block: 1.37s
  Compute SA of block: 9.13s
  Compute LCP of block: 3.74s
  Compute MS-support: 2.27s
  Stream:   Stream: 100.0%, time = 1436.28, I/O = 8.12MB/s
  Invert matching statistics: 0.64s
  Parse block: 2.34s
  Current progress: 71.1%, elapsed = 74431s, z = 144493588, total I/O vol = 37.72n
Process block [12343137330..12462974587):
  Read block: 1.37s
  Compute SA of block: 9.05s
  Compute LCP of block: 3.69s
  Compute MS-support: 2.27s
  Stream:   Stream: 100.0%, time = 1521.19, I/O = 7.74MB/s
  Invert matching statistics: 0.65s
  Parse block: 2.32s
  Current progress: 71.8%, elapsed = 75972s, z = 145721493, total I/O vol = 38.45n
Process block [12462973910..12582811167):
  Read block: 1.34s
  Compute SA of block: 8.87s
  Compute LCP of block: 3.59s
  Compute MS-support: 2.25s
  Stream:   Stream: 100.0%, time = 1501.91, I/O = 7.91MB/s
  Invert matching statistics: 0.65s
  Parse block: 2.20s
  Current progress: 72.5%, elapsed = 77493s, z = 146670565, total I/O vol = 39.19n
Process block [12582811164..12702648421):
  Read block: 1.32s
  Compute SA of block: 9.11s
  Compute LCP of block: 3.74s
  Compute MS-support: 2.26s
  Stream:   Stream: 100.0%, time = 1643.77, I/O = 7.30MB/s
  Invert matching statistics: 0.61s
  Parse block: 2.36s
  Current progress: 73.2%, elapsed = 79156s, z = 148024167, total I/O vol = 39.93n
Process block [12702648305..12822485562):
  Read block: 1.36s
  Compute SA of block: 9.14s
  Compute LCP of block: 3.71s
  Compute MS-support: 2.27s
  Stream:   Stream: 100.0%, time = 1662.75, I/O = 7.29MB/s
  Invert matching statistics: 0.61s
  Parse block: 2.29s
  Current progress: 73.9%, elapsed = 80839s, z = 149140337, total I/O vol = 40.68n
Process block [12822485334..12942322591):
  Read block: 1.32s
  Compute SA of block: 9.15s
  Compute LCP of block: 3.75s
  Compute MS-support: 2.27s
  Stream:   Stream: 100.0%, time = 1663.85, I/O = 7.35MB/s
  Invert matching statistics: 0.65s
  Parse block: 2.34s
  Current progress: 74.6%, elapsed = 82522s, z = 150394740, total I/O vol = 41.44n
Process block [12942321073..13062158330):
  Read block: 1.30s
  Compute SA of block: 8.81s
  Compute LCP of block: 3.62s
  Compute MS-support: 2.22s
  Stream:   Stream: 100.0%, time = 1675.60, I/O = 7.37MB/s
  Invert matching statistics: 0.61s
  Parse block: 2.22s
  Current progress: 75.3%, elapsed = 84217s, z = 151371325, total I/O vol = 42.21n
Process block [13062157097..13181994354):
  Read block: 1.35s
  Compute SA of block: 9.08s
  Compute LCP of block: 3.69s
  Compute MS-support: 2.27s
  Stream:   Stream: 100.0%, time = 1704.63, I/O = 7.31MB/s
  Invert matching statistics: 0.64s
  Parse block: 2.30s
  Current progress: 76.0%, elapsed = 85941s, z = 152547275, total I/O vol = 42.98n
Process block [13181992596..13301829853):
  Read block: 1.34s
  Compute SA of block: 9.13s
  Compute LCP of block: 3.77s
  Compute MS-support: 2.26s
  Stream:   Stream: 100.0%, time = 1714.99, I/O = 7.33MB/s
  Invert matching statistics: 0.61s
  Parse block: 2.38s
  Current progress: 76.7%, elapsed = 87676s, z = 153900464, total I/O vol = 43.76n
Process block [13301829804..13421667061):
  Read block: 1.30s
  Compute SA of block: 9.15s
  Compute LCP of block: 3.74s
  Compute MS-support: 2.27s
  Stream:   Stream: 100.0%, time = 1742.40, I/O = 7.28MB/s
  Invert matching statistics: 0.63s
  Parse block: 2.34s
  Current progress: 77.4%, elapsed = 89438s, z = 155149962, total I/O vol = 44.55n
Process block [13421666551..13541503808):
  Read block: 1.32s
  Compute SA of block: 9.11s
  Compute LCP of block: 3.74s
  Compute MS-support: 2.26s
  Stream:   Stream: 100.0%, time = 1750.94, I/O = 7.31MB/s
  Invert matching statistics: 0.61s
  Parse block: 2.36s
  Current progress: 78.1%, elapsed = 91209s, z = 156447639, total I/O vol = 45.34n
Process block [13541503796..13661341053):
  Read block: 1.35s
  Compute SA of block: 9.14s
  Compute LCP of block: 3.81s
  Compute MS-support: 2.27s
  Stream:   Stream: 100.0%, time = 1773.97, I/O = 7.28MB/s
  Invert matching statistics: 0.73s
  Parse block: 2.43s
  Current progress: 78.8%, elapsed = 93003s, z = 157917702, total I/O vol = 46.14n
Process block [13661340998..13781178255):
  Read block: 1.31s
  Compute SA of block: 9.01s
  Compute LCP of block: 3.88s
  Compute MS-support: 2.27s
  Stream:   Stream: 100.0%, time = 1745.19, I/O = 7.47MB/s
  Invert matching statistics: 0.70s
  Parse block: 2.56s
  Current progress: 79.5%, elapsed = 94768s, z = 159751078, total I/O vol = 46.95n
Process block [13781178225..13901015482):
  Read block: 1.30s
  Compute SA of block: 9.13s
  Compute LCP of block: 3.74s
  Compute MS-support: 2.27s
  Stream:   Stream: 100.0%, time = 1799.97, I/O = 7.30MB/s
  Invert matching statistics: 0.60s
  Parse block: 2.34s
  Current progress: 80.2%, elapsed = 96588s, z = 161001137, total I/O vol = 47.76n
Process block [13901014985..14020852242):
  Read block: 1.35s
  Compute SA of block: 9.21s
  Compute LCP of block: 3.76s
  Compute MS-support: 2.28s
  Stream:   Stream: 100.0%, time = 1818.61, I/O = 7.29MB/s
  Invert matching statistics: 0.66s
  Parse block: 2.35s
  Current progress: 80.9%, elapsed = 98427s, z = 162279586, total I/O vol = 48.59n
Process block [14020850407..14140687664):
  Read block: 1.33s
  Compute SA of block: 9.08s
  Compute LCP of block: 3.77s
  Compute MS-support: 2.26s
  Stream:   Stream: 100.0%, time = 1833.27, I/O = 7.29MB/s
  Invert matching statistics: 0.66s
  Parse block: 2.39s
  Current progress: 81.6%, elapsed = 100280s, z = 163700537, total I/O vol = 49.41n
Process block [14140687154..14260524411):
  Read block: 1.30s
  Compute SA of block: 9.13s
  Compute LCP of block: 3.71s
  Compute MS-support: 2.27s
  Stream:   Stream: 100.0%, time = 1844.26, I/O = 7.31MB/s
  Invert matching statistics: 0.60s
  Parse block: 2.30s
  Current progress: 82.3%, elapsed = 102144s, z = 164861932, total I/O vol = 50.25n
Process block [14260524060..14380361317):
  Read block: 1.35s
  Compute SA of block: 9.13s
  Compute LCP of block: 3.70s
  Compute MS-support: 2.27s
  Stream:   Stream: 100.0%, time = 1834.98, I/O = 7.41MB/s
  Invert matching statistics: 0.61s
  Parse block: 2.30s
  Current progress: 83.0%, elapsed = 103998s, z = 166016449, total I/O vol = 51.09n
Process block [14380361290..14500198547):
  Read block: 1.33s
  Compute SA of block: 8.95s
  Compute LCP of block: 3.72s
  Compute MS-support: 2.25s
  Stream:   Stream: 100.0%, time = 1852.67, I/O = 7.40MB/s
  Invert matching statistics: 0.61s
  Parse block: 2.33s
  Current progress: 83.7%, elapsed = 105870s, z = 167272782, total I/O vol = 51.94n
Process block [14500197950..14620035207):
  Read block: 1.32s
  Compute SA of block: 8.80s
  Compute LCP of block: 3.64s
  Compute MS-support: 2.22s
  Stream:   Stream: 100.0%, time = 1704.11, I/O = 8.11MB/s
  Invert matching statistics: 0.60s
  Parse block: 2.27s
  Current progress: 84.4%, elapsed = 107594s, z = 168385949, total I/O vol = 52.80n
Process block [14620034954..14739872211):
  Read block: 1.37s
  Compute SA of block: 8.78s
  Compute LCP of block: 3.62s
  Compute MS-support: 2.21s
  Stream:   Stream: 100.0%, time = 1855.18, I/O = 7.52MB/s
  Invert matching statistics: 0.61s
  Parse block: 2.25s
  Current progress: 85.1%, elapsed = 109468s, z = 169438221, total I/O vol = 53.66n
Process block [14739870930..14859708187):
  Read block: 1.32s
  Compute SA of block: 8.66s
  Compute LCP of block: 3.60s
  Compute MS-support: 2.20s
  Stream:   Stream: 100.0%, time = 1747.79, I/O = 8.04MB/s
  Invert matching statistics: 0.62s
  Parse block: 2.25s
  Current progress: 85.8%, elapsed = 111235s, z = 170502468, total I/O vol = 54.53n
Process block [14859708185..14979545442):
  Read block: 1.32s
  Compute SA of block: 9.15s
  Compute LCP of block: 3.80s
  Compute MS-support: 2.24s
  Stream:   Stream: 100.0%, time = 1624.83, I/O = 8.72MB/s
  Invert matching statistics: 0.62s
  Parse block: 2.45s
  Current progress: 86.5%, elapsed = 112880s, z = 172004045, total I/O vol = 55.41n
Process block [14979545101..15099382358):
  Read block: 1.36s
  Compute SA of block: 8.93s
  Compute LCP of block: 3.52s
  Compute MS-support: 2.20s
  Stream:   Stream: 100.0%, time = 1745.03, I/O = 8.19MB/s
  Invert matching statistics: 0.65s
  Parse block: 2.15s
  Current progress: 87.2%, elapsed = 114644s, z = 172802952, total I/O vol = 56.30n
Process block [15099382357..15219219614):
  Read block: 1.37s
  Compute SA of block: 8.86s
  Compute LCP of block: 3.70s
  Compute MS-support: 2.24s
  Stream:   Stream: 100.0%, time = 1859.30, I/O = 7.74MB/s
  Invert matching statistics: 0.60s
  Parse block: 2.34s
  Current progress: 87.9%, elapsed = 116522s, z = 174122387, total I/O vol = 57.19n
Process block [15219215031..15339052288):
  Read block: 1.32s
  Compute SA of block: 9.10s
  Compute LCP of block: 3.71s
  Compute MS-support: 2.26s
  Stream:   Stream: 100.0%, time = 1885.23, I/O = 7.70MB/s
  Invert matching statistics: 0.61s
  Parse block: 2.32s
  Current progress: 88.6%, elapsed = 118427s, z = 175319136, total I/O vol = 58.09n
Process block [15339051950..15458889207):
  Read block: 1.32s
  Compute SA of block: 9.11s
  Compute LCP of block: 3.78s
  Compute MS-support: 2.26s
  Stream:   Stream: 100.0%, time = 1920.55, I/O = 7.62MB/s
  Invert matching statistics: 0.61s
  Parse block: 2.42s
  Current progress: 89.3%, elapsed = 120368s, z = 176850848, total I/O vol = 58.99n
Process block [15458889181..15578726438):
  Read block: 1.39s
  Compute SA of block: 9.08s
  Compute LCP of block: 3.72s
  Compute MS-support: 2.27s
  Stream:   Stream: 100.0%, time = 1948.85, I/O = 7.56MB/s
  Invert matching statistics: 0.61s
  Parse block: 2.33s
  Current progress: 90.0%, elapsed = 122336s, z = 178119128, total I/O vol = 59.91n
Process block [15578725026..15698562283):
  Read block: 1.34s
  Compute SA of block: 9.15s
  Compute LCP of block: 3.72s
  Compute MS-support: 2.27s
  Stream:   Stream: 100.0%, time = 1933.80, I/O = 7.68MB/s
  Invert matching statistics: 0.59s
  Parse block: 2.30s
  Current progress: 90.7%, elapsed = 124290s, z = 179277067, total I/O vol = 60.83n
Process block [15698562227..15818399484):
  Read block: 1.33s
  Compute SA of block: 9.17s
  Compute LCP of block: 3.72s
  Compute MS-support: 2.27s
  Stream:   Stream: 100.0%, time = 2000.97, I/O = 7.48MB/s
  Invert matching statistics: 0.67s
  Parse block: 2.31s
  Current progress: 91.4%, elapsed = 126311s, z = 180470610, total I/O vol = 61.75n
Process block [15818399394..15938236651):
  Read block: 1.37s
  Compute SA of block: 9.05s
  Compute LCP of block: 3.71s
  Compute MS-support: 2.26s
  Stream:   Stream: 100.0%, time = 2001.52, I/O = 7.54MB/s
  Invert matching statistics: 0.60s
  Parse block: 2.33s
  Current progress: 92.1%, elapsed = 128332s, z = 181743676, total I/O vol = 62.69n
Process block [15938233875..16058071132):
  Read block: 1.36s
  Compute SA of block: 9.05s
  Compute LCP of block: 3.70s
  Compute MS-support: 2.27s
  Stream:   Stream: 100.0%, time = 2005.01, I/O = 7.58MB/s
  Invert matching statistics: 0.64s
  Parse block: 2.30s
  Current progress: 92.8%, elapsed = 130356s, z = 182896435, total I/O vol = 63.63n
Process block [16058071128..16177908385):
  Read block: 1.33s
  Compute SA of block: 9.16s
  Compute LCP of block: 3.74s
  Compute MS-support: 2.27s
  Stream:   Stream: 100.0%, time = 2022.29, I/O = 7.57MB/s
  Invert matching statistics: 0.63s
  Parse block: 2.33s
  Current progress: 93.5%, elapsed = 132398s, z = 184110278, total I/O vol = 64.58n
Process block [16177908081..16297745338):
  Read block: 1.34s
  Compute SA of block: 9.18s
  Compute LCP of block: 3.75s
  Compute MS-support: 2.27s
  Stream:   Stream: 100.0%, time = 1996.46, I/O = 7.73MB/s
  Invert matching statistics: 0.63s
  Parse block: 2.33s
  Current progress: 94.2%, elapsed = 134415s, z = 185275809, total I/O vol = 65.53n
Process block [16297745330..16417582587):
  Read block: 1.35s
  Compute SA of block: 8.99s
  Compute LCP of block: 3.71s
  Compute MS-support: 2.26s
  Stream:   Stream: 100.0%, time = 2055.07, I/O = 7.56MB/s
  Invert matching statistics: 0.62s
  Parse block: 2.29s
  Current progress: 94.9%, elapsed = 136489s, z = 186388954, total I/O vol = 66.49n
Process block [16417582254..16537419511):
  Read block: 1.32s
  Compute SA of block: 8.90s
  Compute LCP of block: 3.73s
  Compute MS-support: 2.26s
  Stream:   Stream: 100.0%, time = 2052.01, I/O = 7.63MB/s
  Invert matching statistics: 0.69s
  Parse block: 2.38s
  Current progress: 95.6%, elapsed = 138561s, z = 187749380, total I/O vol = 67.46n
Process block [16537419206..16657256463):
  Read block: 1.38s
  Compute SA of block: 9.24s
  Compute LCP of block: 3.73s
  Compute MS-support: 2.28s
  Stream:   Stream: 100.0%, time = 2071.23, I/O = 7.61MB/s
  Invert matching statistics: 0.60s
  Parse block: 2.31s
  Current progress: 96.3%, elapsed = 140652s, z = 188872333, total I/O vol = 68.44n
Process block [16657256447..16777093704):
  Read block: 1.35s
  Compute SA of block: 9.10s
  Compute LCP of block: 3.71s
  Compute MS-support: 2.27s
  Stream:   Stream: 100.0%, time = 2109.82, I/O = 7.53MB/s
  Invert matching statistics: 0.60s
  Parse block: 2.30s
  Current progress: 97.0%, elapsed = 142781s, z = 190007652, total I/O vol = 69.42n
Process block [16777091360..16896928617):
  Read block: 1.34s
  Compute SA of block: 9.14s
  Compute LCP of block: 3.77s
  Compute MS-support: 2.26s
  Stream:   Stream: 100.0%, time = 2109.75, I/O = 7.58MB/s
  Invert matching statistics: 0.61s
  Parse block: 2.39s
  Current progress: 97.7%, elapsed = 144911s, z = 191404384, total I/O vol = 70.41n
Process block [16896927907..17016765164):
  Read block: 1.36s
  Compute SA of block: 9.10s
  Compute LCP of block: 3.69s
  Compute MS-support: 2.27s
  Stream:   Stream: 100.0%, time = 2130.79, I/O = 7.56MB/s
  Invert matching statistics: 0.60s
  Parse block: 2.28s
  Current progress: 98.4%, elapsed = 147061s, z = 192496751, total I/O vol = 71.41n
Process block [17016765151..17136602408):
  Read block: 1.38s
  Compute SA of block: 9.04s
  Compute LCP of block: 3.72s
  Compute MS-support: 2.27s
  Stream:   Stream: 100.0%, time = 2136.78, I/O = 7.59MB/s
  Invert matching statistics: 0.63s
  Parse block: 2.32s
  Current progress: 99.1%, elapsed = 149218s, z = 193720346, total I/O vol = 72.41n
Process block [17136600226..17179869184):
  Read block: 0.50s
  Compute SA of block: 2.80s
  Compute LCP of block: 1.29s
  Compute MS-support: 0.80s
  Stream:   Stream: 100.0%, time = 1829.22, I/O = 8.93MB/s
  Invert matching statistics: 0.21s
  Parse block: 0.81s
  Current progress: 99.7%, elapsed = 151054s, z = 194177964, total I/O vol = 73.42n


Computation finished. Summary:
  elapsed time = 151053.85s (9.220s/MiB of text)
  speed = 0.11MiB of text/s
  I/O volume = 1261315514127bytes (73.42bytes/input symbol)
  Number of phrases = 194177964
  Average phrase length = 88.475
Final Wtime(s) : 151054
N Phrases      : 194177964
	Command being timed: "./ext/EM-LZscan-0.2/src/emlz_parser -o RESULTS_SCALABILITY/WIKIPEDIA//17179869184/EMLZscan_files/compressed.lz -m4000 /home/work/dvalenzu/data/large/Wiki.16GiB"
	User time (seconds): 140976.10
	System time (seconds): 425.52
	Percent of CPU this job got: 93%
	Elapsed (wall clock) time (h:mm:ss or m:ss): 41:57:33
	Average shared text size (kbytes): 0
	Average unshared data size (kbytes): 0
	Average stack size (kbytes): 0
	Average total size (kbytes): 0
	Maximum resident set size (kbytes): 3984900
	Average resident set size (kbytes): 0
	Major (requiring I/O) page faults: 10
	Minor (reclaiming a frame) page faults: 159106356
	Voluntary context switches: 1272578
	Involuntary context switches: 184315
	Swaps: 0
	File system inputs: 1067363440
	File system outputs: 7213040
	Socket messages sent: 0
	Socket messages received: 0
	Signals delivered: 0
	Page size (bytes): 4096
	Exit status: 0
