1 7260016
10485760 1208560
20971520 1162532
41943040 1012180
62914560 1002680
83886080 1006024
104857600 1017688
125829120 1118100
146800640 1302648
167772160 1486940
188743680 1671084
209715200 1855652
