10485760  23397066 0.05 1.67
20971520  21391967 0.1 1.53
41943040  18931124 0.2 1.36
62914560  17747668 0.3 1.27
83886080  16912411 0.4 1.21
104857600  16296389 0.5 1.17
125829120  15882487 0.6 1.14
146800640  15712647 0.7 1.12
167772160  14925425 0.8 1.07
188743680  14112501 0.9 1.01
209715200  13971133 1.0 1.0
