./data//Leaders: 842.7 KiB / 44.8 MiB = 0.018
./data//Leaders.decompressed.lzma: 842.7 KiB / 44.8 MiB = 0.018
Compression ratio : 0.0183715865002
Final Wtime(s)    : 0.560427904129
Decompression t(s)    : 0.0636961460114
