./data//Sources: 29.9 MiB / 201.1 MiB = 0.149, 2.1 MiB/s, 1:33
./data//Sources.decompressed.lzma: 29.9 MiB / 201.1 MiB = 0.149, 0:01
Compression ratio : 0.14879062857
Final Wtime(s)    : 93.9255769253
Decompression t(s)    : 1.67689704895
