1 7296812
10543330 1354952
21086660 1266712
42173320 1176912
63259980 1153192
84346640 1095856
105433300 1109904
126519960 1127156
147606620 1309720
168693280 1495052
189779940 1680456
210866607 1865792
