10543330  27961874 0.05 2.41
21086660  24541450 0.1 2.12
42173320  21838543 0.2 1.88
63259980  20175305 0.3 1.74
84346640  18760612 0.4 1.62
105433300  17715958 0.5 1.53
126519960  16891467 0.6 1.46
147606620  14880336 0.7 1.28
168693280  13417323 0.8 1.16
189779940  12135541 0.9 1.05
210866607  11598459 1.0 1.0
